{
  "lastUserId": "0",
  "lastPropertyId": "2",
  "users": [{ "username": "kamran", "password": "123", "id": "0" }],
  "properties": [
    {
      "name": "residence",
      "numberOfRooms": "5",
      "numberOfBedRooms": "7",
      "id": "0"
    },
    {
      "name": "kuala",
      "numberOfRooms": "9",
      "numberOfBedRooms": "8",
      "id": "1"
    }
  ]
}
